# Blender MTL File: 'None'
# Material Count: 1

newmtl Floor_Material
Ns 100.000000
Ka 0.100000 0.100000 0.100000 0.1
Kd 0.100000 0.100000 0.100000
Ks 1.000000 1.000000 1.000000
Ke 0.0 0.0 0.0
Ni 1.450000
d 1.000000
illum 2
